18682152,11781155-7,JAIME EDGARDOSOBARZOLINCO,1403654-7,JUAN ZEREGA MORTOLA                               ,20191211,161       ,N,20191220_117811557_18682152,117811557_1_FOCE_18682152_DD_309_20191220084910.pdf
18682153,19989123-5,JUAN SEBASTIANMUNOZOYARZO,79711380-8,INGENIERIA DE PROYECTOS Y ASESORIAS LTDA          ,20191117,161       ,S,20191220_199891235_018682153,199891235_1_FOCE_018682153_DD_340_20191220085112.pdf
18682154,16591233-0,JUAN GUILLERMOVERAALVARADO,76722410-9,NUEVA RIO BLANCO SA                               ,20191207,161       ,S,20191220_165912330_018682154,165912330_1_FOCE_018682154_DD_332_20191220085053.pdf
18682155,26188525-5,MAKENSONERZILX,10619432-7,PEDRO JUAN MATURANA PEREZ                         ,20191109,159-2     ,N,20191220_261885255_18682155,261885255_1_FOCE_18682155_DD_348_20191220085014.pdf
18682156,10342585-9,HENRY MILTONRIVERAIBANEZ,87930900-K,CRUZ Y DAVILA INGENIEROS CONSULTORES LTDA         ,20191215,159-4     ,N,20191220_103425859_18682156,103425859_1_FOCE_18682156_DD_324_20191220084906.pdf
18682157,19066738-3,VIVIANA ALEJANDRABECERRAHUENTO,12912738-4,PAULA QUINTEROS                                   ,20190708,159-2     ,N,20191220_190667383_18682157,190667383_1_FOCE_18682157_DD_319_20191220084908.pdf
18682158,18136595-1,NICOLE ALEJANDRAMOLINAVENECIANO,88416800-7,SOCIEDAD COMERCIALLOS NARANJOS LIMITADA           ,20191107,159-2     ,N,20191220_181365951_18682158,181365951_1_FOCE_18682158_DD_312_20191220084920.pdf
18682159,10076850-K,JORGE ANTONIOJARABAEZA,76114087-6,TRANSPORTES LUIS RIFO LTDA                        ,20191130,159-1     ,N,20191220_10076850k_18682159,10076850k_1_FOCE_18682159_DD_328_20191220084925.pdf
18682161,20273140-6,RAFAEL ANGELSALAZARGAJARDO,83145600-0,CONSTRUCTORA VALKO S A                            ,20191130,159-5     ,S,20191220_202731406_018682161,202731406_1_FOCE_018682161_DD_320_20191220085123.pdf
18682162,18762268-9,MAURICIO JAVIERCORDOVAPINO,76005780-0,SUPPORT SERVICES LTDA                             ,20191006,159-2     ,N,20191220_187622689_18682162,187622689_1_FOCE_18682162_DD_348_20191220084956.pdf
18682163,16260683-2,CONSTANZA LISSETTFERNANDEZFERNANDEZ,99559010-7,STP SANTIAGO S A                                  ,20191209,159-4     ,N,20191220_162606832_18682163,162606832_1_FOCE_18682163_DD_343_20191220085018.pdf
18682164,25838441-5,OSCARALANYACHOQUE,76319183-4,GASTRONOMIA GOICOCHEA Y VEGA LIMITADA             ,20191215,159-2     ,N,20191220_258384415_18682164,258384415_1_FOCE_18682164_DD_288_20191220085019.pdf
18682165,7671486-K,JORGE ENRIQUEPAEZARDILES,76171728-6,PAEZ Y RODRIGUEZ METALFIBRAS LTDA                 ,20191205,161       ,N,20191220_7671486k_18682165,7671486k_1_FOCE_18682165_DD_305_20191220085019.pdf
18682166,11167060-9,LEONARDO ARTUROCONTRERASRODRIGUEZ,78461400-K,PANIFICADORA PULMAHUE LTDA                        ,20191122,161       ,S,20191220_111670609_018682166,111670609_1_FOCE_018682166_DD_348_20191220085539.pdf
18682167,12744167-7,VICTOR HUGOOLIVERAMANRIQUEZ,76214280-5,INGENIERIA AVA MONTAJES LTDA                      ,20191215,159-5     ,N,20191220_127441677_18682167,127441677_1_FOCE_18682167_DD_329_20191220085159.pdf
18682168,13356631-7,FRANCISCO LEONARSCHMALZFERNANDEZ,96571220-8,BANCHILE CORREDORES DE BOLSA S A                  ,20191129,161       ,N,20191220_133566317_18682168,133566317_1_FOCE_18682168_DD_338_20191220085100.pdf
18682169,11236656-3,JUAN ALEJANDROUMANZORGARCES,76134941-4,ADM DE SUPERMERCADOS HIPER LTDA                   ,20191219,161       ,N,20191220_112366563_018682169,112366563_1_FOCE_018682169_DD_320_20191220085339.pdf
18682170,15224886-5,JOSE LORENZOAVILASAAVEDRA,77117210-5,INST  Y CONS  SANITARIAS INSTALBURGOS LTDA        ,20191003,159-5     ,N,20191220_152248865_18682170,152248865_1_FOCE_18682170_DD_339_20191220085107.pdf
18682172,15985372-1,FREDDYNANCULEFMARIN,91915000-9,INGENIERIA Y CONSTRUCCION SIGDO KOPPERS S A       ,20191206,159-5     ,N,20191220_159853721_18682172,159853721_1_FOCE_18682172_DD_329_20191220085155.pdf
18682173,10655963-5,OSCAR HERNANHERNANDEZGONZALEZ,76113048-K,SOC  PIEDRA  ALTA SPA                             ,20191130,159-5     ,N,20191220_106559635_18682173,106559635_1_FOCE_18682173_DD_328_20191220085329.pdf
18682174,9945879-8,ANGELICA CECILIAHERNANDEZZAMORANO,90749000-9,SACI FALABELLA                                    ,20191130,159-1     ,N,20191220_99458798_18682174,99458798_1_FOCE_18682174_DD_288_20191220085205.pdf
18682175,12024685-2,MARIA MAGDALENAGONZALEZCARRASCO,69060700-K,I MUNICIPALIDAD DE QUINTERO                       ,20191130,159-4     ,N,20191220_120246852_18682175,120246852_1_FOCE_18682175_DD_317_20191220085221.pdf
18682176,12443098-4,RITA ISABELROJASZAPATA,88793900-4,AGRICOLA MAGGIOLOLTDA                             ,20191010,160       ,N,20191220_124430984_18682176,124430984_1_FOCE_18682176_DD_315_20191220095515.pdf
18682177,13919129-3,JUAN PATRICIOSANTOSVALENZUELA,3320590-2,JORGE SEGUNDO TAPIA CONTRERAS                     ,20191219,161       ,S,20191220_139191293_018682177,139191293_1_FOCE_018682177_DD_305_20191220085612.pdf
18682178,16854636-K,JOSE LUISCASTROVILLEGAS,76052273-2,IMPORTADORA Y EXPORTADORA JILI LIMITADA           ,20191130,161       ,S,20191220_16854636K_18682178,16854636K_1_FOCE_18682178_DD_337_20191220085532.pdf
18682179,19573758-4,CONSTANZA PAULETTEARREDONDOOYANADEL,76856618-6,SERVICIOS DE DIGITACION SPA                       ,20190531,159-2     ,N,20191220_195737584_18682179,195737584_1_FOCE_18682179_DD_343_20191220085242.pdf
18682180,16194821-7,VICTOR ALFONSOSOTOMARIMAN,10529998-2,MARIA FAUMELISA MANSILLA CARCAMO                  ,20191130,159-4     ,S,20191220_161948217_018682180,161948217_1_FOCE_018682180_DD_333_20191220085440.pdf
18682181,14251091-K,PAOLA YANERROJASHENRIQUEZ,88910400-7,CONFECCIONES NAZAL LTDA                           ,20191206,161       ,S,20191220_14251091k_018682181,14251091k_1_FOCE_018682181_DD_339_20191220085648.pdf
18682182,13048771-8,MARIA ELIANAMARTINEZPALACIOS,96895220-K,ATENTO CHILE S.A.                                 ,20191217,161       ,N,20191220_130487718_18682182,130487718_1_FOCE_18682182_DD_343_20191220085252.pdf
18682183,11863844-1,JOSELITO ANTONIOVASQUEZCORNEJO,96691680-K,MENA Y OVALLE S.A.                                ,20191217,160       ,N,20191220_118638441_18682183,118638441_1_FOCE_18682183_DD_348_20191220085256.pdf
